<svg width="685" height="391" viewBox="0 0 685 391" fill="none" xmlns="http://www.w3.org/2000/svg">
<g filter="url(#filter0_d_1_453)">
<rect x="20" y="16" width="645" height="351" rx="20" fill="white"/>
<rect x="20.5" y="16.5" width="644" height="350" rx="19.5" stroke="#F8F9FA"/>
</g>
<path d="M49.88 65V51H52.02L58.14 61.22H57.02L63.04 51H65.18L65.2 65H62.74L62.72 54.86H63.24L58.12 63.4H56.96L51.76 54.86H52.36V65H49.88ZM73.5416 65.14C72.4482 65.14 71.4749 64.9067 70.6216 64.44C69.7682 63.96 69.0949 63.3067 68.6016 62.48C68.1082 61.6533 67.8616 60.7133 67.8616 59.66C67.8616 58.5933 68.1082 57.6533 68.6016 56.84C69.0949 56.0133 69.7682 55.3667 70.6216 54.9C71.4749 54.4333 72.4482 54.2 73.5416 54.2C74.6482 54.2 75.6282 54.4333 76.4816 54.9C77.3482 55.3667 78.0216 56.0067 78.5016 56.82C78.9949 57.6333 79.2416 58.58 79.2416 59.66C79.2416 60.7133 78.9949 61.6533 78.5016 62.48C78.0216 63.3067 77.3482 63.96 76.4816 64.44C75.6282 64.9067 74.6482 65.14 73.5416 65.14ZM73.5416 63C74.1549 63 74.7016 62.8667 75.1816 62.6C75.6616 62.3333 76.0349 61.9467 76.3016 61.44C76.5816 60.9333 76.7216 60.34 76.7216 59.66C76.7216 58.9667 76.5816 58.3733 76.3016 57.88C76.0349 57.3733 75.6616 56.9867 75.1816 56.72C74.7016 56.4533 74.1616 56.32 73.5616 56.32C72.9482 56.32 72.4016 56.4533 71.9216 56.72C71.4549 56.9867 71.0816 57.3733 70.8016 57.88C70.5216 58.3733 70.3816 58.9667 70.3816 59.66C70.3816 60.34 70.5216 60.9333 70.8016 61.44C71.0816 61.9467 71.4549 62.3333 71.9216 62.6C72.4016 62.8667 72.9416 63 73.5416 63ZM87.6922 54.2C88.5455 54.2 89.3055 54.3667 89.9722 54.7C90.6522 55.0333 91.1855 55.5467 91.5722 56.24C91.9589 56.92 92.1522 57.8 92.1522 58.88V65H89.6522V59.2C89.6522 58.2533 89.4255 57.5467 88.9722 57.08C88.5322 56.6133 87.9122 56.38 87.1122 56.38C86.5255 56.38 86.0055 56.5 85.5522 56.74C85.0989 56.98 84.7455 57.34 84.4922 57.82C84.2522 58.2867 84.1322 58.88 84.1322 59.6V65H81.6322V54.32H84.0122V57.2L83.5922 56.32C83.9655 55.64 84.5055 55.12 85.2122 54.76C85.9322 54.3867 86.7589 54.2 87.6922 54.2ZM99.3436 65.14C98.1703 65.14 97.2636 64.84 96.6236 64.24C95.9836 63.6267 95.6636 62.7267 95.6636 61.54V51.96H98.1636V61.48C98.1636 61.9867 98.2903 62.38 98.5436 62.66C98.8103 62.94 99.1769 63.08 99.6436 63.08C100.204 63.08 100.67 62.9333 101.044 62.64L101.744 64.42C101.45 64.66 101.09 64.84 100.664 64.96C100.237 65.08 99.7969 65.14 99.3436 65.14ZM93.9036 56.4V54.4H101.024V56.4H93.9036ZM109.86 54.2C110.713 54.2 111.473 54.3667 112.14 54.7C112.82 55.0333 113.353 55.5467 113.74 56.24C114.127 56.92 114.32 57.8 114.32 58.88V65H111.82V59.2C111.82 58.2533 111.593 57.5467 111.14 57.08C110.7 56.6133 110.08 56.38 109.28 56.38C108.693 56.38 108.173 56.5 107.72 56.74C107.267 56.98 106.913 57.34 106.66 57.82C106.42 58.2867 106.3 58.88 106.3 59.6V65H103.8V50.16H106.3V57.2L105.76 56.32C106.133 55.64 106.673 55.12 107.38 54.76C108.1 54.3867 108.927 54.2 109.86 54.2ZM117.492 65V50.16H119.992V65H117.492ZM124.153 69.02C123.633 69.02 123.113 68.9333 122.593 68.76C122.073 68.5867 121.639 68.3467 121.293 68.04L122.293 66.2C122.546 66.4267 122.833 66.6067 123.153 66.74C123.473 66.8733 123.799 66.94 124.133 66.94C124.586 66.94 124.953 66.8267 125.233 66.6C125.513 66.3733 125.773 65.9933 126.013 65.46L126.633 64.06L126.833 63.76L130.873 54.32H133.273L128.273 65.86C127.939 66.66 127.566 67.2933 127.153 67.76C126.753 68.2267 126.299 68.5533 125.793 68.74C125.299 68.9267 124.753 69.02 124.153 69.02ZM126.353 65.38L121.533 54.32H124.133L128.053 63.54L126.353 65.38ZM144.943 65.2C143.849 65.2 142.803 65.0467 141.803 64.74C140.803 64.42 140.009 64.0133 139.423 63.52L140.323 61.5C140.883 61.94 141.576 62.3067 142.403 62.6C143.229 62.8933 144.076 63.04 144.943 63.04C145.676 63.04 146.269 62.96 146.723 62.8C147.176 62.64 147.509 62.4267 147.723 62.16C147.936 61.88 148.043 61.5667 148.043 61.22C148.043 60.7933 147.889 60.4533 147.583 60.2C147.276 59.9333 146.876 59.7267 146.383 59.58C145.903 59.42 145.363 59.2733 144.763 59.14C144.176 59.0067 143.583 58.8533 142.983 58.68C142.396 58.4933 141.856 58.26 141.363 57.98C140.883 57.6867 140.489 57.3 140.183 56.82C139.876 56.34 139.723 55.7267 139.723 54.98C139.723 54.22 139.923 53.5267 140.323 52.9C140.736 52.26 141.356 51.7533 142.183 51.38C143.023 50.9933 144.083 50.8 145.363 50.8C146.203 50.8 147.036 50.9067 147.863 51.12C148.689 51.3333 149.409 51.64 150.023 52.04L149.203 54.06C148.576 53.6867 147.929 53.4133 147.263 53.24C146.596 53.0533 145.956 52.96 145.343 52.96C144.623 52.96 144.036 53.0467 143.583 53.22C143.143 53.3933 142.816 53.62 142.603 53.9C142.403 54.18 142.303 54.5 142.303 54.86C142.303 55.2867 142.449 55.6333 142.743 55.9C143.049 56.1533 143.443 56.3533 143.923 56.5C144.416 56.6467 144.963 56.7933 145.563 56.94C146.163 57.0733 146.756 57.2267 147.343 57.4C147.943 57.5733 148.483 57.8 148.963 58.08C149.456 58.36 149.849 58.74 150.143 59.22C150.449 59.7 150.603 60.3067 150.603 61.04C150.603 61.7867 150.396 62.48 149.983 63.12C149.583 63.7467 148.963 64.2533 148.123 64.64C147.283 65.0133 146.223 65.2 144.943 65.2ZM158.861 65.14C157.994 65.14 157.201 64.94 156.481 64.54C155.774 64.14 155.207 63.54 154.781 62.74C154.367 61.9267 154.161 60.9 154.161 59.66C154.161 58.4067 154.361 57.38 154.761 56.58C155.174 55.78 155.734 55.1867 156.441 54.8C157.147 54.4 157.954 54.2 158.861 54.2C159.914 54.2 160.841 54.4267 161.641 54.88C162.454 55.3333 163.094 55.9667 163.561 56.78C164.041 57.5933 164.281 58.5533 164.281 59.66C164.281 60.7667 164.041 61.7333 163.561 62.56C163.094 63.3733 162.454 64.0067 161.641 64.46C160.841 64.9133 159.914 65.14 158.861 65.14ZM152.941 68.88V54.32H155.321V56.84L155.241 59.68L155.441 62.52V68.88H152.941ZM158.581 63C159.181 63 159.714 62.8667 160.181 62.6C160.661 62.3333 161.041 61.9467 161.321 61.44C161.601 60.9333 161.741 60.34 161.741 59.66C161.741 58.9667 161.601 58.3733 161.321 57.88C161.041 57.3733 160.661 56.9867 160.181 56.72C159.714 56.4533 159.181 56.32 158.581 56.32C157.981 56.32 157.441 56.4533 156.961 56.72C156.481 56.9867 156.101 57.3733 155.821 57.88C155.541 58.3733 155.401 58.9667 155.401 59.66C155.401 60.34 155.541 60.9333 155.821 61.44C156.101 61.9467 156.481 62.3333 156.961 62.6C157.441 62.8667 157.981 63 158.581 63ZM171.672 65.14C170.485 65.14 169.445 64.9067 168.552 64.44C167.672 63.96 166.985 63.3067 166.492 62.48C166.012 61.6533 165.772 60.7133 165.772 59.66C165.772 58.5933 166.005 57.6533 166.472 56.84C166.952 56.0133 167.605 55.3667 168.432 54.9C169.272 54.4333 170.225 54.2 171.292 54.2C172.332 54.2 173.258 54.4267 174.072 54.88C174.885 55.3333 175.525 55.9733 175.992 56.8C176.458 57.6267 176.692 58.6 176.692 59.72C176.692 59.8267 176.685 59.9467 176.672 60.08C176.672 60.2133 176.665 60.34 176.652 60.46H167.752V58.8H175.332L174.352 59.32C174.365 58.7067 174.238 58.1667 173.972 57.7C173.705 57.2333 173.338 56.8667 172.872 56.6C172.418 56.3333 171.892 56.2 171.292 56.2C170.678 56.2 170.138 56.3333 169.672 56.6C169.218 56.8667 168.858 57.24 168.592 57.72C168.338 58.1867 168.212 58.74 168.212 59.38V59.78C168.212 60.42 168.358 60.9867 168.652 61.48C168.945 61.9733 169.358 62.3533 169.892 62.62C170.425 62.8867 171.038 63.02 171.732 63.02C172.332 63.02 172.872 62.9267 173.352 62.74C173.832 62.5533 174.258 62.26 174.632 61.86L175.972 63.4C175.492 63.96 174.885 64.3933 174.152 64.7C173.432 64.9933 172.605 65.14 171.672 65.14ZM185.153 54.2C186.006 54.2 186.766 54.3667 187.433 54.7C188.113 55.0333 188.646 55.5467 189.033 56.24C189.42 56.92 189.613 57.8 189.613 58.88V65H187.113V59.2C187.113 58.2533 186.886 57.5467 186.433 57.08C185.993 56.6133 185.373 56.38 184.573 56.38C183.986 56.38 183.466 56.5 183.013 56.74C182.56 56.98 182.206 57.34 181.953 57.82C181.713 58.2867 181.593 58.88 181.593 59.6V65H179.093V54.32H181.473V57.2L181.053 56.32C181.426 55.64 181.966 55.12 182.673 54.76C183.393 54.3867 184.22 54.2 185.153 54.2ZM196.805 65.14C195.631 65.14 194.725 64.84 194.085 64.24C193.445 63.6267 193.125 62.7267 193.125 61.54V51.96H195.625V61.48C195.625 61.9867 195.751 62.38 196.005 62.66C196.271 62.94 196.638 63.08 197.105 63.08C197.665 63.08 198.131 62.9333 198.505 62.64L199.205 64.42C198.911 64.66 198.551 64.84 198.125 64.96C197.698 65.08 197.258 65.14 196.805 65.14ZM191.365 56.4V54.4H198.485V56.4H191.365ZM210.748 67.4V48.6H212.388V67.4H210.748ZM211.368 65.2C210.275 65.2 209.228 65.0467 208.228 64.74C207.228 64.42 206.435 64.0133 205.848 63.52L206.748 61.5C207.308 61.94 208.002 62.3067 208.828 62.6C209.655 62.8933 210.502 63.04 211.368 63.04C212.102 63.04 212.695 62.96 213.148 62.8C213.602 62.64 213.935 62.4267 214.148 62.16C214.362 61.88 214.468 61.5667 214.468 61.22C214.468 60.7933 214.315 60.4533 214.008 60.2C213.702 59.9333 213.302 59.7267 212.808 59.58C212.328 59.42 211.788 59.2733 211.188 59.14C210.602 59.0067 210.008 58.8533 209.408 58.68C208.822 58.4933 208.282 58.26 207.788 57.98C207.308 57.6867 206.915 57.3 206.608 56.82C206.302 56.34 206.148 55.7267 206.148 54.98C206.148 54.22 206.348 53.5267 206.748 52.9C207.162 52.26 207.782 51.7533 208.608 51.38C209.448 50.9933 210.508 50.8 211.788 50.8C212.628 50.8 213.462 50.9067 214.288 51.12C215.115 51.3333 215.835 51.64 216.448 52.04L215.628 54.06C215.002 53.6867 214.355 53.4133 213.688 53.24C213.022 53.0533 212.382 52.96 211.768 52.96C211.048 52.96 210.462 53.0467 210.008 53.22C209.568 53.3933 209.242 53.62 209.028 53.9C208.828 54.18 208.728 54.5 208.728 54.86C208.728 55.2867 208.875 55.6333 209.168 55.9C209.475 56.1533 209.868 56.3533 210.348 56.5C210.842 56.6467 211.388 56.7933 211.988 56.94C212.588 57.0733 213.182 57.2267 213.768 57.4C214.368 57.5733 214.908 57.8 215.388 58.08C215.882 58.36 216.275 58.74 216.568 59.22C216.875 59.7 217.028 60.3067 217.028 61.04C217.028 61.7867 216.822 62.48 216.408 63.12C216.008 63.7467 215.388 64.2533 214.548 64.64C213.708 65.0133 212.648 65.2 211.368 65.2ZM224.447 65.2C223.34 65.2 222.34 64.92 221.447 64.36C220.567 63.8 219.873 62.9867 219.367 61.92C218.86 60.84 218.607 59.5333 218.607 58C218.607 56.4667 218.86 55.1667 219.367 54.1C219.873 53.02 220.567 52.2 221.447 51.64C222.34 51.08 223.34 50.8 224.447 50.8C225.567 50.8 226.567 51.08 227.447 51.64C228.327 52.2 229.02 53.02 229.527 54.1C230.047 55.1667 230.307 56.4667 230.307 58C230.307 59.5333 230.047 60.84 229.527 61.92C229.02 62.9867 228.327 63.8 227.447 64.36C226.567 64.92 225.567 65.2 224.447 65.2ZM224.447 62.94C225.1 62.94 225.667 62.7667 226.147 62.42C226.627 62.06 227 61.5133 227.267 60.78C227.547 60.0467 227.687 59.12 227.687 58C227.687 56.8667 227.547 55.94 227.267 55.22C227 54.4867 226.627 53.9467 226.147 53.6C225.667 53.24 225.1 53.06 224.447 53.06C223.82 53.06 223.26 53.24 222.767 53.6C222.287 53.9467 221.907 54.4867 221.627 55.22C221.36 55.94 221.227 56.8667 221.227 58C221.227 59.12 221.36 60.0467 221.627 60.78C221.907 61.5133 222.287 62.06 222.767 62.42C223.26 62.7667 223.82 62.94 224.447 62.94ZM233.389 65.14C232.936 65.14 232.549 64.9867 232.229 64.68C231.909 64.36 231.749 63.96 231.749 63.48C231.749 62.9733 231.909 62.5733 232.229 62.28C232.549 61.9733 232.936 61.82 233.389 61.82C233.843 61.82 234.229 61.9733 234.549 62.28C234.869 62.5733 235.029 62.9733 235.029 63.48C235.029 63.96 234.869 64.36 234.549 64.68C234.229 64.9867 233.843 65.14 233.389 65.14ZM241.307 65.2C240.321 65.2 239.354 65.06 238.407 64.78C237.474 64.4867 236.687 64.0867 236.047 63.58L237.167 61.56C237.674 61.9733 238.287 62.3067 239.007 62.56C239.727 62.8133 240.481 62.94 241.267 62.94C242.201 62.94 242.927 62.7533 243.447 62.38C243.967 61.9933 244.227 61.4733 244.227 60.82C244.227 60.18 243.987 59.6733 243.507 59.3C243.027 58.9267 242.254 58.74 241.187 58.74H239.907V56.96L243.907 52.2L244.247 53.18H236.727V51H246.267V52.74L242.267 57.5L240.907 56.7H241.687C243.407 56.7 244.694 57.0867 245.547 57.86C246.414 58.62 246.847 59.6 246.847 60.8C246.847 61.5867 246.647 62.3133 246.247 62.98C245.847 63.6467 245.234 64.1867 244.407 64.6C243.594 65 242.561 65.2 241.307 65.2ZM250.693 65L256.473 52.04L257.153 53.2H249.213L250.453 51.94V55.58H248.033V51H258.913V52.74L253.473 65H250.693Z" fill="#05004E"/>
<path d="M87 235.5H637" stroke="#EFF1F3" stroke-linecap="round"/>
<path d="M87 266.5H637" stroke="#EFF1F3" stroke-linecap="round"/>
<path d="M87 203.5H637" stroke="#EFF1F3" stroke-linecap="round"/>
<path d="M87 171.5H637" stroke="#EFF1F3" stroke-linecap="round"/>
<path d="M87 139.5H637" stroke="#EFF1F3" stroke-linecap="round"/>
<path d="M87 107.5H637" stroke="#EFF1F3" stroke-linecap="round"/>
<path d="M48.612 110.124C49.628 109.308 50.424 108.64 51 108.12C51.576 107.592 52.06 107.044 52.452 106.476C52.852 105.9 53.052 105.336 53.052 104.784C53.052 104.264 52.924 103.856 52.668 103.56C52.42 103.256 52.016 103.104 51.456 103.104C50.912 103.104 50.488 103.276 50.184 103.62C49.888 103.956 49.728 104.408 49.704 104.976H48.648C48.68 104.08 48.952 103.388 49.464 102.9C49.976 102.412 50.636 102.168 51.444 102.168C52.268 102.168 52.92 102.396 53.4 102.852C53.888 103.308 54.132 103.936 54.132 104.736C54.132 105.4 53.932 106.048 53.532 106.68C53.14 107.304 52.692 107.856 52.188 108.336C51.684 108.808 51.04 109.36 50.256 109.992H54.384V110.904H48.612V110.124ZM61.1783 103.272H56.9663V106.008C57.1503 105.752 57.4223 105.544 57.7823 105.384C58.1423 105.216 58.5303 105.132 58.9463 105.132C59.6103 105.132 60.1503 105.272 60.5663 105.552C60.9823 105.824 61.2783 106.18 61.4543 106.62C61.6383 107.052 61.7303 107.512 61.7303 108C61.7303 108.576 61.6223 109.092 61.4063 109.548C61.1903 110.004 60.8583 110.364 60.4103 110.628C59.9703 110.892 59.4223 111.024 58.7663 111.024C57.9263 111.024 57.2463 110.808 56.7263 110.376C56.2063 109.944 55.8903 109.368 55.7783 108.648H56.8463C56.9503 109.104 57.1703 109.46 57.5063 109.716C57.8423 109.972 58.2663 110.1 58.7783 110.1C59.4103 110.1 59.8863 109.912 60.2063 109.536C60.5263 109.152 60.6863 108.648 60.6863 108.024C60.6863 107.4 60.5263 106.92 60.2063 106.584C59.8863 106.24 59.4143 106.068 58.7903 106.068C58.3663 106.068 57.9943 106.172 57.6743 106.38C57.3623 106.58 57.1343 106.856 56.9903 107.208H55.9583V102.312H61.1783V103.272ZM67.0335 111L64.4535 108.096V111H63.3615V102.12H64.4535V107.34L66.9855 104.424H68.5095L65.4135 107.7L68.5215 111H67.0335Z" fill="#7B91B0"/>
<path d="M48.612 142.124C49.628 141.308 50.424 140.64 51 140.12C51.576 139.592 52.06 139.044 52.452 138.476C52.852 137.9 53.052 137.336 53.052 136.784C53.052 136.264 52.924 135.856 52.668 135.56C52.42 135.256 52.016 135.104 51.456 135.104C50.912 135.104 50.488 135.276 50.184 135.62C49.888 135.956 49.728 136.408 49.704 136.976H48.648C48.68 136.08 48.952 135.388 49.464 134.9C49.976 134.412 50.636 134.168 51.444 134.168C52.268 134.168 52.92 134.396 53.4 134.852C53.888 135.308 54.132 135.936 54.132 136.736C54.132 137.4 53.932 138.048 53.532 138.68C53.14 139.304 52.692 139.856 52.188 140.336C51.684 140.808 51.04 141.36 50.256 141.992H54.384V142.904H48.612V142.124ZM55.6463 138.572C55.6463 137.196 55.8703 136.124 56.3183 135.356C56.7663 134.58 57.5503 134.192 58.6703 134.192C59.7823 134.192 60.5623 134.58 61.0103 135.356C61.4583 136.124 61.6823 137.196 61.6823 138.572C61.6823 139.972 61.4583 141.06 61.0103 141.836C60.5623 142.612 59.7823 143 58.6703 143C57.5503 143 56.7663 142.612 56.3183 141.836C55.8703 141.06 55.6463 139.972 55.6463 138.572ZM60.6023 138.572C60.6023 137.876 60.5543 137.288 60.4583 136.808C60.3703 136.32 60.1823 135.928 59.8943 135.632C59.6143 135.336 59.2063 135.188 58.6703 135.188C58.1263 135.188 57.7103 135.336 57.4223 135.632C57.1423 135.928 56.9543 136.32 56.8583 136.808C56.7703 137.288 56.7263 137.876 56.7263 138.572C56.7263 139.292 56.7703 139.896 56.8583 140.384C56.9543 140.872 57.1423 141.264 57.4223 141.56C57.7103 141.856 58.1263 142.004 58.6703 142.004C59.2063 142.004 59.6143 141.856 59.8943 141.56C60.1823 141.264 60.3703 140.872 60.4583 140.384C60.5543 139.896 60.6023 139.292 60.6023 138.572ZM67.0335 143L64.4535 140.096V143H63.3615V134.12H64.4535V139.34L66.9855 136.424H68.5095L65.4135 139.7L68.5215 143H67.0335Z" fill="#7B91B0"/>
<path d="M48.456 199.32V198.324H50.712V207H49.608V199.32H48.456ZM52.5878 202.572C52.5878 201.196 52.8118 200.124 53.2598 199.356C53.7078 198.58 54.4918 198.192 55.6118 198.192C56.7238 198.192 57.5038 198.58 57.9518 199.356C58.3997 200.124 58.6237 201.196 58.6237 202.572C58.6237 203.972 58.3997 205.06 57.9518 205.836C57.5038 206.612 56.7238 207 55.6118 207C54.4918 207 53.7078 206.612 53.2598 205.836C52.8118 205.06 52.5878 203.972 52.5878 202.572ZM57.5438 202.572C57.5438 201.876 57.4958 201.288 57.3998 200.808C57.3118 200.32 57.1238 199.928 56.8358 199.632C56.5558 199.336 56.1478 199.188 55.6118 199.188C55.0678 199.188 54.6518 199.336 54.3638 199.632C54.0838 199.928 53.8958 200.32 53.7998 200.808C53.7118 201.288 53.6678 201.876 53.6678 202.572C53.6678 203.292 53.7118 203.896 53.7998 204.384C53.8958 204.872 54.0838 205.264 54.3638 205.56C54.6518 205.856 55.0678 206.004 55.6118 206.004C56.1478 206.004 56.5558 205.856 56.8358 205.56C57.1238 205.264 57.3118 204.872 57.3998 204.384C57.4958 203.896 57.5438 203.292 57.5438 202.572ZM63.9749 207L61.3949 204.096V207H60.3029V198.12H61.3949V203.34L63.9269 200.424H65.4509L62.3549 203.7L65.4629 207H63.9749Z" fill="#7B91B0"/>
<path d="M48.456 167.32V166.324H50.712V175H49.608V167.32H48.456ZM58.1198 167.272H53.9078V170.008C54.0918 169.752 54.3638 169.544 54.7238 169.384C55.0838 169.216 55.4718 169.132 55.8878 169.132C56.5518 169.132 57.0918 169.272 57.5078 169.552C57.9238 169.824 58.2198 170.18 58.3958 170.62C58.5798 171.052 58.6718 171.512 58.6718 172C58.6718 172.576 58.5638 173.092 58.3478 173.548C58.1318 174.004 57.7998 174.364 57.3518 174.628C56.9118 174.892 56.3638 175.024 55.7078 175.024C54.8678 175.024 54.1878 174.808 53.6678 174.376C53.1478 173.944 52.8318 173.368 52.7198 172.648H53.7878C53.8918 173.104 54.1118 173.46 54.4478 173.716C54.7838 173.972 55.2078 174.1 55.7198 174.1C56.3518 174.1 56.8278 173.912 57.1478 173.536C57.4678 173.152 57.6278 172.648 57.6278 172.024C57.6278 171.4 57.4678 170.92 57.1478 170.584C56.8278 170.24 56.3558 170.068 55.7318 170.068C55.3078 170.068 54.9358 170.172 54.6158 170.38C54.3038 170.58 54.0758 170.856 53.9318 171.208H52.8998V166.312H58.1198V167.272ZM63.9749 175L61.3949 172.096V175H60.3029V166.12H61.3949V171.34L63.9269 168.424H65.4509L62.3549 171.7L65.4629 175H63.9749Z" fill="#7B91B0"/>
<path d="M54.276 231.272H50.064V234.008C50.248 233.752 50.52 233.544 50.88 233.384C51.24 233.216 51.628 233.132 52.044 233.132C52.708 233.132 53.248 233.272 53.664 233.552C54.08 233.824 54.376 234.18 54.552 234.62C54.736 235.052 54.828 235.512 54.828 236C54.828 236.576 54.72 237.092 54.504 237.548C54.288 238.004 53.956 238.364 53.508 238.628C53.068 238.892 52.52 239.024 51.864 239.024C51.024 239.024 50.344 238.808 49.824 238.376C49.304 237.944 48.988 237.368 48.876 236.648H49.944C50.048 237.104 50.268 237.46 50.604 237.716C50.94 237.972 51.364 238.1 51.876 238.1C52.508 238.1 52.984 237.912 53.304 237.536C53.624 237.152 53.784 236.648 53.784 236.024C53.784 235.4 53.624 234.92 53.304 234.584C52.984 234.24 52.512 234.068 51.888 234.068C51.464 234.068 51.092 234.172 50.772 234.38C50.46 234.58 50.232 234.856 50.088 235.208H49.056V230.312H54.276V231.272ZM60.1312 239L57.5512 236.096V239H56.4592V230.12H57.5512V235.34L60.0832 232.424H61.6072L58.5112 235.7L61.6192 239H60.1312Z" fill="#7B91B0"/>
<path d="M48.744 266.572C48.744 265.196 48.968 264.124 49.416 263.356C49.864 262.58 50.648 262.192 51.768 262.192C52.88 262.192 53.66 262.58 54.108 263.356C54.556 264.124 54.78 265.196 54.78 266.572C54.78 267.972 54.556 269.06 54.108 269.836C53.66 270.612 52.88 271 51.768 271C50.648 271 49.864 270.612 49.416 269.836C48.968 269.06 48.744 267.972 48.744 266.572ZM53.7 266.572C53.7 265.876 53.652 265.288 53.556 264.808C53.468 264.32 53.28 263.928 52.992 263.632C52.712 263.336 52.304 263.188 51.768 263.188C51.224 263.188 50.808 263.336 50.52 263.632C50.24 263.928 50.052 264.32 49.956 264.808C49.868 265.288 49.824 265.876 49.824 266.572C49.824 267.292 49.868 267.896 49.956 268.384C50.052 268.872 50.24 269.264 50.52 269.56C50.808 269.856 51.224 270.004 51.768 270.004C52.304 270.004 52.712 269.856 52.992 269.56C53.28 269.264 53.468 268.872 53.556 268.384C53.652 267.896 53.7 267.292 53.7 266.572Z" fill="#7B91B0"/>
<path d="M116.465 286.696V295H115.373V288.808L112.613 295H111.845L109.073 288.796V295H107.981V286.696H109.157L112.229 293.56L115.301 286.696H116.465ZM117.909 291.688C117.909 291.016 118.045 290.428 118.317 289.924C118.589 289.412 118.961 289.016 119.433 288.736C119.913 288.456 120.445 288.316 121.029 288.316C121.605 288.316 122.105 288.44 122.529 288.688C122.953 288.936 123.269 289.248 123.477 289.624V288.424H124.581V295H123.477V293.776C123.261 294.16 122.937 294.48 122.505 294.736C122.081 294.984 121.585 295.108 121.017 295.108C120.433 295.108 119.905 294.964 119.433 294.676C118.961 294.388 118.589 293.984 118.317 293.464C118.045 292.944 117.909 292.352 117.909 291.688ZM123.477 291.7C123.477 291.204 123.377 290.772 123.177 290.404C122.977 290.036 122.705 289.756 122.361 289.564C122.025 289.364 121.653 289.264 121.245 289.264C120.837 289.264 120.465 289.36 120.129 289.552C119.793 289.744 119.525 290.024 119.325 290.392C119.125 290.76 119.025 291.192 119.025 291.688C119.025 292.192 119.125 292.632 119.325 293.008C119.525 293.376 119.793 293.66 120.129 293.86C120.465 294.052 120.837 294.148 121.245 294.148C121.653 294.148 122.025 294.052 122.361 293.86C122.705 293.66 122.977 293.376 123.177 293.008C123.377 292.632 123.477 292.196 123.477 291.7ZM127.518 289.492C127.71 289.116 127.982 288.824 128.334 288.616C128.694 288.408 129.13 288.304 129.642 288.304V289.432H129.354C128.13 289.432 127.518 290.096 127.518 291.424V295H126.426V288.424H127.518V289.492ZM130.495 291.7C130.495 291.02 130.631 290.428 130.903 289.924C131.175 289.412 131.551 289.016 132.031 288.736C132.519 288.456 133.075 288.316 133.699 288.316C134.507 288.316 135.171 288.512 135.691 288.904C136.219 289.296 136.567 289.84 136.735 290.536H135.559C135.447 290.136 135.227 289.82 134.899 289.588C134.579 289.356 134.179 289.24 133.699 289.24C133.075 289.24 132.571 289.456 132.187 289.888C131.803 290.312 131.611 290.916 131.611 291.7C131.611 292.492 131.803 293.104 132.187 293.536C132.571 293.968 133.075 294.184 133.699 294.184C134.179 294.184 134.579 294.072 134.899 293.848C135.219 293.624 135.439 293.304 135.559 292.888H136.735C136.559 293.56 136.207 294.1 135.679 294.508C135.151 294.908 134.491 295.108 133.699 295.108C133.075 295.108 132.519 294.968 132.031 294.688C131.551 294.408 131.175 294.012 130.903 293.5C130.631 292.988 130.495 292.388 130.495 291.7ZM141.456 288.304C141.952 288.304 142.4 288.412 142.8 288.628C143.2 288.836 143.512 289.152 143.736 289.576C143.968 290 144.084 290.516 144.084 291.124V295H143.004V291.28C143.004 290.624 142.84 290.124 142.512 289.78C142.184 289.428 141.736 289.252 141.168 289.252C140.592 289.252 140.132 289.432 139.788 289.792C139.452 290.152 139.284 290.676 139.284 291.364V295H138.192V286.12H139.284V289.36C139.5 289.024 139.796 288.764 140.172 288.58C140.556 288.396 140.984 288.304 141.456 288.304Z" fill="#7B91B0"/>
<path d="M197.579 293.14H193.931L193.259 295H192.107L195.131 286.684H196.391L199.403 295H198.251L197.579 293.14ZM197.267 292.252L195.755 288.028L194.243 292.252H197.267ZM201.813 289.636C202.029 289.26 202.349 288.948 202.773 288.7C203.205 288.444 203.705 288.316 204.273 288.316C204.857 288.316 205.385 288.456 205.857 288.736C206.337 289.016 206.713 289.412 206.985 289.924C207.257 290.428 207.393 291.016 207.393 291.688C207.393 292.352 207.257 292.944 206.985 293.464C206.713 293.984 206.337 294.388 205.857 294.676C205.385 294.964 204.857 295.108 204.273 295.108C203.713 295.108 203.217 294.984 202.785 294.736C202.361 294.48 202.037 294.164 201.813 293.788V298.12H200.721V288.424H201.813V289.636ZM206.277 291.688C206.277 291.192 206.177 290.76 205.977 290.392C205.777 290.024 205.505 289.744 205.161 289.552C204.825 289.36 204.453 289.264 204.045 289.264C203.645 289.264 203.273 289.364 202.929 289.564C202.593 289.756 202.321 290.04 202.113 290.416C201.913 290.784 201.813 291.212 201.813 291.7C201.813 292.196 201.913 292.632 202.113 293.008C202.321 293.376 202.593 293.66 202.929 293.86C203.273 294.052 203.645 294.148 204.045 294.148C204.453 294.148 204.825 294.052 205.161 293.86C205.505 293.66 205.777 293.376 205.977 293.008C206.177 292.632 206.277 292.192 206.277 291.688ZM209.922 289.492C210.114 289.116 210.386 288.824 210.738 288.616C211.098 288.408 211.534 288.304 212.046 288.304V289.432H211.758C210.534 289.432 209.922 290.096 209.922 291.424V295H208.83V288.424H209.922V289.492ZM213.871 287.356C213.663 287.356 213.487 287.284 213.343 287.14C213.199 286.996 213.127 286.82 213.127 286.612C213.127 286.404 213.199 286.228 213.343 286.084C213.487 285.94 213.663 285.868 213.871 285.868C214.071 285.868 214.239 285.94 214.375 286.084C214.519 286.228 214.591 286.404 214.591 286.612C214.591 286.82 214.519 286.996 214.375 287.14C214.239 287.284 214.071 287.356 213.871 287.356ZM214.399 288.424V295H213.307V288.424H214.399ZM217.352 286.12V295H216.26V286.12H217.352Z" fill="#7B91B0"/>
<path d="M279.804 286.696V295H278.712V288.808L275.952 295H275.184L272.412 288.796V295H271.32V286.696H272.496L275.568 293.56L278.64 286.696H279.804ZM281.248 291.688C281.248 291.016 281.384 290.428 281.656 289.924C281.928 289.412 282.3 289.016 282.772 288.736C283.252 288.456 283.784 288.316 284.368 288.316C284.944 288.316 285.444 288.44 285.868 288.688C286.292 288.936 286.608 289.248 286.816 289.624V288.424H287.92V295H286.816V293.776C286.6 294.16 286.276 294.48 285.844 294.736C285.42 294.984 284.924 295.108 284.356 295.108C283.772 295.108 283.244 294.964 282.772 294.676C282.3 294.388 281.928 293.984 281.656 293.464C281.384 292.944 281.248 292.352 281.248 291.688ZM286.816 291.7C286.816 291.204 286.716 290.772 286.516 290.404C286.316 290.036 286.044 289.756 285.7 289.564C285.364 289.364 284.992 289.264 284.584 289.264C284.176 289.264 283.804 289.36 283.468 289.552C283.132 289.744 282.864 290.024 282.664 290.392C282.464 290.76 282.364 291.192 282.364 291.688C282.364 292.192 282.464 292.632 282.664 293.008C282.864 293.376 283.132 293.66 283.468 293.86C283.804 294.052 284.176 294.148 284.584 294.148C284.992 294.148 285.364 294.052 285.7 293.86C286.044 293.66 286.316 293.376 286.516 293.008C286.716 292.632 286.816 292.196 286.816 291.7ZM295.43 288.424L291.47 298.096H290.342L291.638 294.928L288.986 288.424H290.198L292.262 293.752L294.302 288.424H295.43Z" fill="#7B91B0"/>
<path d="M352.558 286.636V292.816C352.558 293.504 352.346 294.056 351.922 294.472C351.498 294.88 350.938 295.084 350.242 295.084C349.538 295.084 348.974 294.876 348.55 294.46C348.126 294.036 347.914 293.46 347.914 292.732H349.006C349.014 293.14 349.118 293.472 349.318 293.728C349.526 293.984 349.834 294.112 350.242 294.112C350.65 294.112 350.954 293.992 351.154 293.752C351.354 293.504 351.454 293.192 351.454 292.816V286.636H352.558ZM360.541 288.424V295H359.449V294.028C359.241 294.364 358.949 294.628 358.573 294.82C358.205 295.004 357.797 295.096 357.349 295.096C356.837 295.096 356.377 294.992 355.969 294.784C355.561 294.568 355.237 294.248 354.997 293.824C354.765 293.4 354.649 292.884 354.649 292.276V288.424H355.729V292.132C355.729 292.78 355.893 293.28 356.221 293.632C356.549 293.976 356.997 294.148 357.565 294.148C358.149 294.148 358.609 293.968 358.945 293.608C359.281 293.248 359.449 292.724 359.449 292.036V288.424H360.541ZM365.589 288.304C366.389 288.304 367.037 288.548 367.533 289.036C368.029 289.516 368.277 290.212 368.277 291.124V295H367.197V291.28C367.197 290.624 367.033 290.124 366.705 289.78C366.377 289.428 365.929 289.252 365.361 289.252C364.785 289.252 364.325 289.432 363.981 289.792C363.645 290.152 363.477 290.676 363.477 291.364V295H362.385V288.424H363.477V289.36C363.693 289.024 363.985 288.764 364.353 288.58C364.729 288.396 365.141 288.304 365.589 288.304ZM376.061 291.46C376.061 291.668 376.049 291.888 376.025 292.12H370.769C370.809 292.768 371.029 293.276 371.429 293.644C371.837 294.004 372.329 294.184 372.905 294.184C373.377 294.184 373.769 294.076 374.081 293.86C374.401 293.636 374.625 293.34 374.753 292.972H375.929C375.753 293.604 375.401 294.12 374.873 294.52C374.345 294.912 373.689 295.108 372.905 295.108C372.281 295.108 371.721 294.968 371.225 294.688C370.737 294.408 370.353 294.012 370.073 293.5C369.793 292.98 369.653 292.38 369.653 291.7C369.653 291.02 369.789 290.424 370.061 289.912C370.333 289.4 370.713 289.008 371.201 288.736C371.697 288.456 372.265 288.316 372.905 288.316C373.529 288.316 374.081 288.452 374.561 288.724C375.041 288.996 375.409 289.372 375.665 289.852C375.929 290.324 376.061 290.86 376.061 291.46ZM374.933 291.232C374.933 290.816 374.841 290.46 374.657 290.164C374.473 289.86 374.221 289.632 373.901 289.48C373.589 289.32 373.241 289.24 372.857 289.24C372.305 289.24 371.833 289.416 371.441 289.768C371.057 290.12 370.837 290.608 370.781 291.232H374.933Z" fill="#7B91B0"/>
<path d="M434.259 286.636V292.816C434.259 293.504 434.047 294.056 433.623 294.472C433.199 294.88 432.639 295.084 431.943 295.084C431.239 295.084 430.675 294.876 430.251 294.46C429.827 294.036 429.615 293.46 429.615 292.732H430.707C430.715 293.14 430.819 293.472 431.019 293.728C431.227 293.984 431.535 294.112 431.943 294.112C432.351 294.112 432.655 293.992 432.855 293.752C433.055 293.504 433.155 293.192 433.155 292.816V286.636H434.259ZM442.242 288.424V295H441.15V294.028C440.942 294.364 440.65 294.628 440.274 294.82C439.906 295.004 439.498 295.096 439.05 295.096C438.538 295.096 438.078 294.992 437.67 294.784C437.262 294.568 436.938 294.248 436.698 293.824C436.466 293.4 436.35 292.884 436.35 292.276V288.424H437.43V292.132C437.43 292.78 437.594 293.28 437.922 293.632C438.25 293.976 438.698 294.148 439.266 294.148C439.85 294.148 440.31 293.968 440.646 293.608C440.982 293.248 441.15 292.724 441.15 292.036V288.424H442.242ZM445.178 286.12V295H444.086V286.12H445.178ZM452.703 288.424L448.743 298.096H447.615L448.911 294.928L446.259 288.424H447.471L449.535 293.752L451.575 288.424H452.703Z" fill="#7B91B0"/>
<path d="M503.774 293.14H500.126L499.454 295H498.302L501.326 286.684H502.586L505.598 295H504.446L503.774 293.14ZM503.462 292.252L501.95 288.028L500.438 292.252H503.462ZM512.748 288.424V295H511.656V294.028C511.448 294.364 511.156 294.628 510.78 294.82C510.412 295.004 510.004 295.096 509.556 295.096C509.044 295.096 508.584 294.992 508.176 294.784C507.768 294.568 507.444 294.248 507.204 293.824C506.972 293.4 506.856 292.884 506.856 292.276V288.424H507.936V292.132C507.936 292.78 508.1 293.28 508.428 293.632C508.756 293.976 509.204 294.148 509.772 294.148C510.356 294.148 510.816 293.968 511.152 293.608C511.488 293.248 511.656 292.724 511.656 292.036V288.424H512.748ZM517.304 288.316C517.872 288.316 518.368 288.44 518.792 288.688C519.224 288.936 519.544 289.248 519.752 289.624V288.424H520.856V295.144C520.856 295.744 520.728 296.276 520.472 296.74C520.216 297.212 519.848 297.58 519.368 297.844C518.896 298.108 518.344 298.24 517.712 298.24C516.848 298.24 516.128 298.036 515.552 297.628C514.976 297.22 514.636 296.664 514.532 295.96H515.612C515.732 296.36 515.98 296.68 516.356 296.92C516.732 297.168 517.184 297.292 517.712 297.292C518.312 297.292 518.8 297.104 519.176 296.728C519.56 296.352 519.752 295.824 519.752 295.144V293.764C519.536 294.148 519.216 294.468 518.792 294.724C518.368 294.98 517.872 295.108 517.304 295.108C516.72 295.108 516.188 294.964 515.708 294.676C515.236 294.388 514.864 293.984 514.592 293.464C514.32 292.944 514.184 292.352 514.184 291.688C514.184 291.016 514.32 290.428 514.592 289.924C514.864 289.412 515.236 289.016 515.708 288.736C516.188 288.456 516.72 288.316 517.304 288.316ZM519.752 291.7C519.752 291.204 519.652 290.772 519.452 290.404C519.252 290.036 518.98 289.756 518.636 289.564C518.3 289.364 517.928 289.264 517.52 289.264C517.112 289.264 516.74 289.36 516.404 289.552C516.068 289.744 515.8 290.024 515.6 290.392C515.4 290.76 515.3 291.192 515.3 291.688C515.3 292.192 515.4 292.632 515.6 293.008C515.8 293.376 516.068 293.66 516.404 293.86C516.74 294.052 517.112 294.148 517.52 294.148C517.928 294.148 518.3 294.052 518.636 293.86C518.98 293.66 519.252 293.376 519.452 293.008C519.652 292.632 519.752 292.196 519.752 291.7ZM528.533 288.424V295H527.441V294.028C527.233 294.364 526.941 294.628 526.565 294.82C526.197 295.004 525.789 295.096 525.341 295.096C524.829 295.096 524.369 294.992 523.961 294.784C523.553 294.568 523.229 294.248 522.989 293.824C522.757 293.4 522.641 292.884 522.641 292.276V288.424H523.721V292.132C523.721 292.78 523.885 293.28 524.213 293.632C524.541 293.976 524.989 294.148 525.557 294.148C526.141 294.148 526.601 293.968 526.937 293.608C527.273 293.248 527.441 292.724 527.441 292.036V288.424H528.533ZM532.705 295.108C532.201 295.108 531.749 295.024 531.349 294.856C530.949 294.68 530.633 294.44 530.401 294.136C530.169 293.824 530.041 293.468 530.017 293.068H531.145C531.177 293.396 531.329 293.664 531.601 293.872C531.881 294.08 532.245 294.184 532.693 294.184C533.109 294.184 533.437 294.092 533.677 293.908C533.917 293.724 534.037 293.492 534.037 293.212C534.037 292.924 533.909 292.712 533.653 292.576C533.397 292.432 533.001 292.292 532.465 292.156C531.977 292.028 531.577 291.9 531.265 291.772C530.961 291.636 530.697 291.44 530.473 291.184C530.257 290.92 530.149 290.576 530.149 290.152C530.149 289.816 530.249 289.508 530.449 289.228C530.649 288.948 530.933 288.728 531.301 288.568C531.669 288.4 532.089 288.316 532.561 288.316C533.289 288.316 533.877 288.5 534.325 288.868C534.773 289.236 535.013 289.74 535.045 290.38H533.953C533.929 290.036 533.789 289.76 533.533 289.552C533.285 289.344 532.949 289.24 532.525 289.24C532.133 289.24 531.821 289.324 531.589 289.492C531.357 289.66 531.241 289.88 531.241 290.152C531.241 290.368 531.309 290.548 531.445 290.692C531.589 290.828 531.765 290.94 531.973 291.028C532.189 291.108 532.485 291.2 532.861 291.304C533.333 291.432 533.717 291.56 534.013 291.688C534.309 291.808 534.561 291.992 534.769 292.24C534.985 292.488 535.097 292.812 535.105 293.212C535.105 293.572 535.005 293.896 534.805 294.184C534.605 294.472 534.321 294.7 533.953 294.868C533.593 295.028 533.177 295.108 532.705 295.108ZM537.979 289.324V293.2C537.979 293.52 538.047 293.748 538.183 293.884C538.319 294.012 538.555 294.076 538.891 294.076H539.695V295H538.711C538.103 295 537.647 294.86 537.343 294.58C537.039 294.3 536.887 293.84 536.887 293.2V289.324H536.035V288.424H536.887V286.768H537.979V288.424H539.695V289.324H537.979Z" fill="#7B91B0"/>
<path d="M590.279 295.084C589.727 295.084 589.231 294.988 588.791 294.796C588.359 294.596 588.019 294.324 587.771 293.98C587.523 293.628 587.395 293.224 587.387 292.768H588.551C588.591 293.16 588.751 293.492 589.031 293.764C589.319 294.028 589.735 294.16 590.279 294.16C590.799 294.16 591.207 294.032 591.503 293.776C591.807 293.512 591.959 293.176 591.959 292.768C591.959 292.448 591.871 292.188 591.695 291.988C591.519 291.788 591.299 291.636 591.035 291.532C590.771 291.428 590.415 291.316 589.967 291.196C589.415 291.052 588.971 290.908 588.635 290.764C588.307 290.62 588.023 290.396 587.783 290.092C587.551 289.78 587.435 289.364 587.435 288.844C587.435 288.388 587.551 287.984 587.783 287.632C588.015 287.28 588.339 287.008 588.755 286.816C589.179 286.624 589.663 286.528 590.207 286.528C590.991 286.528 591.631 286.724 592.127 287.116C592.631 287.508 592.915 288.028 592.979 288.676H591.779C591.739 288.356 591.571 288.076 591.275 287.836C590.979 287.588 590.587 287.464 590.099 287.464C589.643 287.464 589.271 287.584 588.983 287.824C588.695 288.056 588.551 288.384 588.551 288.808C588.551 289.112 588.635 289.36 588.803 289.552C588.979 289.744 589.191 289.892 589.439 289.996C589.695 290.092 590.051 290.204 590.507 290.332C591.059 290.484 591.503 290.636 591.839 290.788C592.175 290.932 592.463 291.16 592.703 291.472C592.943 291.776 593.063 292.192 593.063 292.72C593.063 293.128 592.955 293.512 592.739 293.872C592.523 294.232 592.203 294.524 591.779 294.748C591.355 294.972 590.855 295.084 590.279 295.084ZM600.67 291.46C600.67 291.668 600.658 291.888 600.634 292.12H595.378C595.418 292.768 595.638 293.276 596.038 293.644C596.446 294.004 596.938 294.184 597.514 294.184C597.986 294.184 598.378 294.076 598.69 293.86C599.01 293.636 599.234 293.34 599.362 292.972H600.538C600.362 293.604 600.01 294.12 599.482 294.52C598.954 294.912 598.298 295.108 597.514 295.108C596.89 295.108 596.33 294.968 595.834 294.688C595.346 294.408 594.962 294.012 594.682 293.5C594.402 292.98 594.262 292.38 594.262 291.7C594.262 291.02 594.398 290.424 594.67 289.912C594.942 289.4 595.322 289.008 595.81 288.736C596.306 288.456 596.874 288.316 597.514 288.316C598.138 288.316 598.69 288.452 599.17 288.724C599.65 288.996 600.018 289.372 600.274 289.852C600.538 290.324 600.67 290.86 600.67 291.46ZM599.542 291.232C599.542 290.816 599.45 290.46 599.266 290.164C599.082 289.86 598.83 289.632 598.51 289.48C598.198 289.32 597.85 289.24 597.466 289.24C596.914 289.24 596.442 289.416 596.05 289.768C595.666 290.12 595.446 290.608 595.39 291.232H599.542ZM603.204 289.636C603.42 289.26 603.74 288.948 604.164 288.7C604.596 288.444 605.096 288.316 605.664 288.316C606.248 288.316 606.776 288.456 607.247 288.736C607.727 289.016 608.104 289.412 608.376 289.924C608.648 290.428 608.784 291.016 608.784 291.688C608.784 292.352 608.648 292.944 608.376 293.464C608.104 293.984 607.727 294.388 607.247 294.676C606.776 294.964 606.248 295.108 605.664 295.108C605.104 295.108 604.608 294.984 604.176 294.736C603.752 294.48 603.428 294.164 603.204 293.788V298.12H602.112V288.424H603.204V289.636ZM607.668 291.688C607.668 291.192 607.568 290.76 607.368 290.392C607.168 290.024 606.896 289.744 606.552 289.552C606.216 289.36 605.844 289.264 605.436 289.264C605.036 289.264 604.664 289.364 604.32 289.564C603.984 289.756 603.712 290.04 603.504 290.416C603.304 290.784 603.204 291.212 603.204 291.7C603.204 292.196 603.304 292.632 603.504 293.008C603.712 293.376 603.984 293.66 604.32 293.86C604.664 294.052 605.036 294.148 605.436 294.148C605.844 294.148 606.216 294.052 606.552 293.86C606.896 293.66 607.168 293.376 607.368 293.008C607.568 292.632 607.668 292.192 607.668 291.688Z" fill="#7B91B0"/>
<rect x="111" y="178" width="12" height="88" rx="2" fill="#5F085A"/>
<rect x="127" y="186" width="12" height="80" rx="2" fill="#AA0DA1"/>
<rect x="193" y="158" width="12" height="108" rx="2" fill="#5F085A"/>
<rect x="209" y="191" width="12" height="75" rx="2" fill="#AA0DA1"/>
<rect x="271" y="230" width="12" height="36" rx="2" fill="#5F085A"/>
<rect x="287" y="122" width="12" height="144" rx="2" fill="#AA0DA1"/>
<rect x="350" y="166" width="12" height="100" rx="2" fill="#5F085A"/>
<rect x="366" y="226" width="12" height="40" rx="2" fill="#AA0DA1"/>
<rect x="427" y="190" width="12" height="76" rx="2" fill="#5F085A"/>
<rect x="443" y="195" width="12" height="71" rx="2" fill="#AA0DA1"/>
<rect x="504" y="160" width="12" height="106" rx="2" fill="#5F085A"/>
<rect x="520" y="181" width="12" height="85" rx="2" fill="#AA0DA1"/>
<rect x="586" y="132" width="12" height="134" rx="2" fill="#5F085A"/>
<rect x="602" y="196" width="12" height="70" rx="2" fill="#AA0DA1"/>
<defs>
<filter id="filter0_d_1_453" x="0" y="0" width="685" height="391" filterUnits="userSpaceOnUse" color-interpolation-filters="sRGB">
<feFlood flood-opacity="0" result="BackgroundImageFix"/>
<feColorMatrix in="SourceAlpha" type="matrix" values="0 0 0 0 0 0 0 0 0 0 0 0 0 0 0 0 0 0 127 0" result="hardAlpha"/>
<feOffset dy="4"/>
<feGaussianBlur stdDeviation="10"/>
<feColorMatrix type="matrix" values="0 0 0 0 0.93198 0 0 0 0 0.93198 0 0 0 0 0.93198 0 0 0 0.501967 0"/>
<feBlend mode="normal" in2="BackgroundImageFix" result="effect1_dropShadow_1_453"/>
<feBlend mode="normal" in="SourceGraphic" in2="effect1_dropShadow_1_453" result="shape"/>
</filter>
</defs>
</svg>
